Data Visualization
…
Annual escapement by species, region, and year * only for Sockeye, Chinook, Coho, Pink, Chum

esc_sub <- esc %>%
  filter(Species %in% c("Sockeye", "Chinook", "Coho", "Pink", "Chum")) %>%
  separate(sampleDate, into = c("Year", "Month", "Day"), sep = "-", remove = TRUE) %>%
  mutate(Year = as.numeric(Year)) %>%
  group_by(Species, SASAP.Region, Year) %>%
  summarise(total = sum(DailyCount),
            n = n())

esc_sub

## # A tibble: 1,484 x 5
## # Groups:   Species, SASAP.Region [39]
##    Species SASAP.Region                           Year total     n
##    <chr>   <chr>                                 <dbl> <int> <int>
##  1 Chinook Alaska Peninsula and Aleutian Islands  1974  1092    75
##  2 Chinook Alaska Peninsula and Aleutian Islands  1975  1917    58
##  3 Chinook Alaska Peninsula and Aleutian Islands  1976  3045    62
##  4 Chinook Alaska Peninsula and Aleutian Islands  1977  4844    70
##  5 Chinook Alaska Peninsula and Aleutian Islands  1978  3901    76
##  6 Chinook Alaska Peninsula and Aleutian Islands  1979 10463    71
##  7 Chinook Alaska Peninsula and Aleutian Islands  1980  4506    76
##  8 Chinook Alaska Peninsula and Aleutian Islands  1981  5046    86
##  9 Chinook Alaska Peninsula and Aleutian Islands  1982  6503    79
## 10 Chinook Alaska Peninsula and Aleutian Islands  1983 11589    78
## #  with 1,474 more rows
…
